MasterCard,Revolving Credit Card,2562.67,18.8,03
Canadian Tire,Revolving Credit Card,2782.32,25.99,03
Sears,Revolving Credit Card,1437.55,25.99,03
CIBC,Convertible Student Loan,14322.48,6.525,01
TD,Car Loan,8496.91,10.2,154.78